{
    "bucket": "big-data-media",
    "prefix_base": "out/covid19/sciensano.xlsx",
    "prefix_output": "out/covid19/sciensano.xlsx",
    "excluded_days": 4,
    "excluded_days_hosp": 1,
    "webdavhost": "https://cloud.rtbf.be/remote.php/dav/files/meiv/",
    "webdavuser": "meiv",
    "webdavpath": "sciensano",
    "folder_share_link": "https://cloud.rtbf.be/s/G7rmowy7iQ5E3Sc",
    "sender": "Gestion Donnees <gestion-donnees@rtbf.be>",
    "expiration_time": 86400,
    "recipients" : [
        "redactionweb@rtbf.be",
        "meiv@rtbf.be"
    ]
}