{    
    "query": 
    {        
        "params": {            
            "limit": 100000,
            "tz": "Europe/Brussels",
            "dimensions": "path,tz_day",
            "metrics": "page_views,page_total_time",
            "filter_key": "pagetype",
            "filter_value": "Article"
        },
        "config": {
            "email": "meiv@rtbf.be",
            "endpoint": "page",
            "host": "rtbf.be",
            "user_id": 150216
        }       
    }
}