{
    "db_reco": "prod",
    "table": "media_cluster",
    "schema": "rtbfv2",
    "providers" : {
        "AREMA": 1,
        "ARTE": 0,
        "CHAPTERAUTO": 1,
        "CHAPTERCMS": 1,
        "CRYO": 1,
        "DAILYMOTION": 0,
        "DALET": 1,
        "FTP": 0,
        "INGESTVOD": 0,
        "LIVECENTER": 1,
        "NETIA": 1,
        "OTHER": 0,
        "PARTNERAB": 0,
        "SONUMA": 1,
        "VIMEO": 0,
        "WHATSON": 1,
        "YOUTUBE": 0
    }
}