{
    "bucket": "big-data-media",
    "segments_generation_file": "crm/in/segments/segments_baseline/generation_segments.csv",
    "processed_log": "crm/in/segments/processed",
    "segments_mapping_file": "crm/recency_segments_mapping/recency_segments_mapping.csv"
}