<?xml version="1.0" encoding="UTF-8" standalone="no"?>
<!-- Created with Inkscape (http://www.inkscape.org/) -->

<svg
   xmlns:dc="http://purl.org/dc/elements/1.1/"
   xmlns:cc="http://creativecommons.org/ns#"
   xmlns:rdf="http://www.w3.org/1999/02/22-rdf-syntax-ns#"
   xmlns:svg="http://www.w3.org/2000/svg"
   xmlns="http://www.w3.org/2000/svg"
   xmlns:sodipodi="http://sodipodi.sourceforge.net/DTD/sodipodi-0.dtd"
   xmlns:inkscape="http://www.inkscape.org/namespaces/inkscape"
   width="210mm"
   height="297mm"
   viewBox="0 0 210 297"
   version="1.1"
   id="svg8"
   inkscape:version="0.92.5 (2060ec1f9f, 2020-04-08)"
   sodipodi:docname="pipeline.svg">
  <defs
     id="defs2" />
  <sodipodi:namedview
     id="base"
     pagecolor="#ffffff"
     bordercolor="#666666"
     borderopacity="1.0"
     inkscape:pageopacity="0.0"
     inkscape:pageshadow="2"
     inkscape:zoom="0.35"
     inkscape:cx="1430.6076"
     inkscape:cy="534.28572"
     inkscape:document-units="mm"
     inkscape:current-layer="g3949"
     showgrid="false"
     inkscape:window-width="1848"
     inkscape:window-height="1006"
     inkscape:window-x="72"
     inkscape:window-y="37"
     inkscape:window-maximized="1" />
  <metadata
     id="metadata5">
    <rdf:RDF>
      <cc:Work
         rdf:about="">
        <dc:format>image/svg+xml</dc:format>
        <dc:type
           rdf:resource="http://purl.org/dc/dcmitype/StillImage" />
        <dc:title />
      </cc:Work>
    </rdf:RDF>
  </metadata>
  <g
     inkscape:label="Layer 1"
     inkscape:groupmode="layer"
     id="layer1">
    <rect
       style="fill:#4d4d4d;stroke-width:0.26458332"
       id="rect3725"
       width="2.2678571"
       height="145.14285"
       x="17.869049"
       y="34.684525"
       inkscape:export-xdpi="96"
       inkscape:export-ydpi="96" />
    <circle
       id="path3713"
       cx="19.002979"
       cy="32.208328"
       style="fill:#4d4d4d;stroke-width:0.14510231"
       r="5.5"
       inkscape:export-xdpi="96"
       inkscape:export-ydpi="96" />
    <text
       xml:space="preserve"
       style="font-style:normal;font-weight:normal;font-size:14.11111111px;line-height:1.25;font-family:sans-serif;letter-spacing:0px;word-spacing:0px;fill:#000000;fill-opacity:1;stroke:none;stroke-width:0.26458332;"
       x="45.357143"
       y="27.125002"
       id="text3717"><tspan
         sodipodi:role="line"
         id="tspan3715"
         x="45.357143"
         y="36.48877"
         style="stroke-width:0.26458332;font-size:14.11111111px;" /></text>
    <text
       xml:space="preserve"
       style="font-style:normal;font-weight:normal;font-size:25.39999962px;line-height:1.25;font-family:sans-serif;letter-spacing:0px;word-spacing:0px;fill:#000000;fill-opacity:1;stroke:none;stroke-width:0.26458332"
       x="35.529755"
       y="34.684521"
       id="text3721"
       inkscape:export-xdpi="96"
       inkscape:export-ydpi="96"><tspan
         sodipodi:role="line"
         id="tspan3719"
         x="35.529755"
         y="34.684521"
         style="font-style:italic;font-variant:normal;font-weight:bold;font-stretch:normal;font-size:16.93333244px;font-family:'Ubuntu Mono';-inkscape-font-specification:'Ubuntu Mono Bold Italic';stroke-width:0.26458332">attribution_age</tspan></text>
    <flowRoot
       xml:space="preserve"
       id="flowRoot3785"
       style="fill:black;fill-opacity:1;stroke:none;font-family:sans-serif;font-style:normal;font-weight:normal;font-size:96px;line-height:1.25;letter-spacing:0px;word-spacing:0px"><flowRegion
         id="flowRegion3787"><rect
           id="rect3789"
           width="120"
           height="151.42857"
           x="171.42857"
           y="191.09111" /></flowRegion><flowPara
         id="flowPara3791" /></flowRoot>    <flowRoot
       xml:space="preserve"
       id="flowRoot3793"
       style="fill:black;fill-opacity:1;stroke:none;font-family:sans-serif;font-style:normal;font-weight:normal;font-size:96px;line-height:1.25;letter-spacing:0px;word-spacing:0px"><flowRegion
         id="flowRegion3795"><rect
           id="rect3797"
           width="245.71428"
           height="262.85715"
           x="14.285714"
           y="159.66254" /></flowRegion><flowPara
         id="flowPara3799" /></flowRoot>    <g
       id="g3976"
       transform="translate(0,-1.6148885e-5)"
       inkscape:export-xdpi="96"
       inkscape:export-ydpi="96">
      <rect
         transform="rotate(-90)"
         y="19.654766"
         x="-69.11615"
         height="35"
         width="2.2679999"
         id="rect3725-0"
         style="fill:#4d4d4d;stroke-width:0.12993085" />
      <circle
         r="5.5"
         style="fill:#4d4d4d;stroke-width:0.14510231"
         cy="67.982147"
         cx="19.002979"
         id="path3713-3" />
      <circle
         r="10"
         style="fill:#4d4d4d;stroke-width:0.26382238"
         cy="67.982147"
         cx="60.440479"
         id="path3713-3-0" />
      <text
         id="text3783"
         y="72.871651"
         x="57.103203"
         style="font-style:normal;font-weight:normal;font-size:25.39999962px;line-height:1.25;font-family:sans-serif;letter-spacing:0px;word-spacing:0px;fill:#000000;fill-opacity:1;stroke:none;stroke-width:0.26458332"
         xml:space="preserve"><tspan
           style="font-style:normal;font-variant:normal;font-weight:bold;font-stretch:normal;font-size:14.11111069px;font-family:Ubuntu;-inkscape-font-specification:'Ubuntu Bold';fill:#ffffff;stroke-width:0.26458332"
           y="72.871651"
           x="57.103203"
           id="tspan3781"
           sodipodi:role="line">1</tspan></text>
      <text
         id="text3721-2"
         y="71.643944"
         x="77.135185"
         style="font-style:normal;font-weight:normal;font-size:25.39999962px;line-height:1.25;font-family:sans-serif;letter-spacing:0px;word-spacing:0px;fill:#000000;fill-opacity:1;stroke:none;stroke-width:0.26458332"
         xml:space="preserve"><tspan
           style="font-style:normal;font-variant:normal;font-weight:normal;font-stretch:normal;font-size:11.28888893px;font-family:Chandas;-inkscape-font-specification:Chandas;stroke-width:0.26458332"
           y="71.643944"
           x="77.135185"
           id="tspan3719-5"
           sodipodi:role="line"><tspan
   style="font-style:normal;font-variant:normal;font-weight:normal;font-stretch:normal;font-family:Dyuthi;-inkscape-font-specification:Dyuthi"
   id="tspan4038">MAX_YEAR</tspan> : Attribution année plus probable </tspan></text>
    </g>
    <g
       id="g3967"
       transform="translate(-0.73810577,-0.10220629)"
       inkscape:export-xdpi="96"
       inkscape:export-ydpi="96">
      <rect
         transform="rotate(-90)"
         y="20.392874"
         x="-106.1221"
         height="35"
         width="2.2679999"
         id="rect3725-0-4"
         style="fill:#4d4d4d;stroke-width:0.12993085" />
      <circle
         r="5.5"
         style="fill:#4d4d4d;stroke-width:0.14510231"
         cy="104.9881"
         cx="19.741085"
         id="path3713-3-05" />
      <circle
         r="10"
         style="fill:#4d4d4d;stroke-width:0.26382238"
         cy="104.9881"
         cx="61.178585"
         id="path3713-3-0-9" />
      <text
         id="text3783-4"
         y="109.87759"
         x="57.841312"
         style="font-style:normal;font-weight:normal;font-size:25.39999962px;line-height:1.25;font-family:sans-serif;letter-spacing:0px;word-spacing:0px;fill:#000000;fill-opacity:1;stroke:none;stroke-width:0.26458332"
         xml:space="preserve"><tspan
           style="font-style:normal;font-variant:normal;font-weight:bold;font-stretch:normal;font-size:14.11111069px;font-family:Ubuntu;-inkscape-font-specification:'Ubuntu Bold';fill:#ffffff;stroke-width:0.26458332"
           y="109.87759"
           x="57.841312"
           id="tspan3781-6"
           sodipodi:role="line">2</tspan></text>
      <text
         id="text3721-2-9"
         y="108.64989"
         x="77.873291"
         style="font-style:normal;font-weight:normal;font-size:25.39999962px;line-height:1.25;font-family:sans-serif;letter-spacing:0px;word-spacing:0px;fill:#000000;fill-opacity:1;stroke:none;stroke-width:0.26458332"
         xml:space="preserve"><tspan
           style="font-style:normal;font-variant:normal;font-weight:normal;font-stretch:normal;font-size:11.28888893px;font-family:Chandas;-inkscape-font-specification:Chandas;stroke-width:0.26458332"
           y="108.64989"
           x="77.873291"
           id="tspan3719-5-2"
           sodipodi:role="line"><tspan
   style="font-style:normal;font-variant:normal;font-weight:normal;font-stretch:normal;font-family:Dyuthi;-inkscape-font-specification:Dyuthi"
   id="tspan4040">MAX_DECENY </tspan>: Attribution décenie plus probable</tspan></text>
    </g>
    <flowRoot
       xml:space="preserve"
       id="flowRoot3852"
       style="fill:black;fill-opacity:1;stroke:none;font-family:sans-serif;font-style:normal;font-weight:normal;font-size:96px;line-height:1.25;letter-spacing:0px;word-spacing:0px"><flowRegion
         id="flowRegion3854"><rect
           id="rect3856"
           width="1120"
           height="177.14285"
           x="17.142857"
           y="308.23398" /></flowRegion><flowPara
         id="flowPara3858" /></flowRoot>    <g
       id="g3958"
       transform="translate(-1.8688869,-2.5080026)"
       inkscape:export-xdpi="96"
       inkscape:export-ydpi="96">
      <rect
         transform="rotate(-90)"
         y="21.523653"
         x="-145.43163"
         height="35"
         width="2.2679999"
         id="rect3725-0-4-2"
         style="fill:#4d4d4d;stroke-width:0.12993085"
         inkscape:export-xdpi="96"
         inkscape:export-ydpi="96" />
      <circle
         r="5.5"
         style="fill:#4d4d4d;stroke-width:0.14510231"
         cy="144.29762"
         cx="20.871866"
         id="path3713-3-05-4"
         inkscape:export-xdpi="96"
         inkscape:export-ydpi="96" />
      <circle
         r="10"
         style="fill:#4d4d4d;stroke-width:0.26382238"
         cy="144.29762"
         cx="62.309364"
         id="path3713-3-0-9-7"
         inkscape:export-xdpi="96"
         inkscape:export-ydpi="96" />
      <text
         id="text3783-4-7"
         y="149.1871"
         x="58.972095"
         style="font-style:normal;font-weight:normal;font-size:25.39999962px;line-height:1.25;font-family:sans-serif;letter-spacing:0px;word-spacing:0px;fill:#000000;fill-opacity:1;stroke:none;stroke-width:0.26458332"
         xml:space="preserve"
         inkscape:export-xdpi="96"
         inkscape:export-ydpi="96"><tspan
           style="font-style:normal;font-variant:normal;font-weight:bold;font-stretch:normal;font-size:14.11111069px;font-family:Ubuntu;-inkscape-font-specification:'Ubuntu Bold';fill:#ffffff;stroke-width:0.26458332"
           y="149.1871"
           x="58.972095"
           id="tspan3781-6-5"
           sodipodi:role="line">3</tspan></text>
      <text
         id="text3721-2-9-4"
         y="147.95941"
         x="79.004074"
         style="font-style:normal;font-weight:normal;font-size:25.39999962px;line-height:1.25;font-family:sans-serif;letter-spacing:0px;word-spacing:0px;fill:#000000;fill-opacity:1;stroke:none;stroke-width:0.26458332"
         xml:space="preserve"
         inkscape:export-xdpi="96"
         inkscape:export-ydpi="96"><tspan
           style="font-style:normal;font-variant:normal;font-weight:normal;font-stretch:normal;font-size:11.28888893px;font-family:Chandas;-inkscape-font-specification:Chandas;stroke-width:0.26458332"
           y="147.95941"
           x="79.004074"
           id="tspan3719-5-2-8"
           sodipodi:role="line"><tspan
   style="font-style:normal;font-variant:normal;font-weight:normal;font-stretch:normal;font-family:Dyuthi;-inkscape-font-specification:Dyuthi"
   id="tspan4042">INTER_QUANTILE</tspan> : Attribution période qui cumule plus de 51% de la distribution</tspan></text>
    </g>
    <g
       id="g3949"
       transform="translate(-0.48213959)"
       inkscape:export-xdpi="96"
       inkscape:export-ydpi="96">
      <rect
         transform="rotate(-90)"
         y="20.136906"
         x="-179.82738"
         height="35"
         width="2.2679999"
         id="rect3725-0-4-2-1"
         style="fill:#4d4d4d;stroke-width:0.12993085"
         inkscape:export-xdpi="96"
         inkscape:export-ydpi="96" />
      <circle
         r="5.5"
         style="fill:#4d4d4d;stroke-width:0.14510231"
         cy="178.69337"
         cx="19.485119"
         id="path3713-3-05-4-2"
         inkscape:export-xdpi="96"
         inkscape:export-ydpi="96" />
      <circle
         r="10"
         style="fill:#4d4d4d;stroke-width:0.26382238"
         cy="178.69337"
         cx="60.922615"
         id="path3713-3-0-9-7-8"
         inkscape:export-xdpi="96"
         inkscape:export-ydpi="96" />
      <text
         id="text3783-4-7-9"
         y="183.58286"
         x="57.58535"
         style="font-style:normal;font-weight:normal;font-size:25.39999962px;line-height:1.25;font-family:sans-serif;letter-spacing:0px;word-spacing:0px;fill:#000000;fill-opacity:1;stroke:none;stroke-width:0.26458332"
         xml:space="preserve"
         inkscape:export-xdpi="96"
         inkscape:export-ydpi="96"><tspan
           style="font-style:normal;font-variant:normal;font-weight:bold;font-stretch:normal;font-size:14.11111069px;font-family:Ubuntu;-inkscape-font-specification:'Ubuntu Bold';fill:#ffffff;stroke-width:0.26458332"
           y="183.58286"
           x="57.58535"
           id="tspan3781-6-5-3"
           sodipodi:role="line">4</tspan></text>
      <text
         id="text3721-2-9-4-6"
         y="182.35516"
         x="77.617325"
         style="font-style:normal;font-weight:normal;font-size:25.39999962px;line-height:1.25;font-family:sans-serif;letter-spacing:0px;word-spacing:0px;fill:#000000;fill-opacity:1;stroke:none;stroke-width:0.26458332"
         xml:space="preserve"
         inkscape:export-xdpi="96"
         inkscape:export-ydpi="96"><tspan
           style="font-style:normal;font-variant:normal;font-weight:normal;font-stretch:normal;font-size:11.28888893px;font-family:Chandas;-inkscape-font-specification:Chandas;stroke-width:0.26458332"
           y="182.35516"
           x="77.617325"
           id="tspan3719-5-2-8-8"
           sodipodi:role="line"><tspan
   style="font-style:normal;font-variant:normal;font-weight:normal;font-stretch:normal;font-family:Dyuthi;-inkscape-font-specification:Dyuthi"
   id="tspan4071">MAX_PUBLIC</tspan> : Attribution public RTBF plus probable</tspan></text>
      <flowRoot
         xml:space="preserve"
         id="flowRoot88"
         style="fill:black;fill-opacity:1;stroke:none;font-family:sans-serif;font-style:normal;font-weight:normal;font-size:96px;line-height:1.25;letter-spacing:0px;word-spacing:0px"><flowRegion
           id="flowRegion90"><rect
             id="rect92"
             width="2542.8572"
             height="1548.5714"
             x="-68.571426"
             y="-288.90887" /></flowRegion><flowPara
           id="flowPara94"></flowPara></flowRoot>    </g>
    <flowRoot
       xml:space="preserve"
       id="flowRoot3926"
       style="fill:black;fill-opacity:1;stroke:none;font-family:sans-serif;font-style:normal;font-weight:normal;font-size:96px;line-height:1.25;letter-spacing:0px;word-spacing:0px"><flowRegion
         id="flowRegion3928"><rect
           id="rect3930"
           width="1288.5714"
           height="605.71429"
           x="-31.428572"
           y="179.66254" /></flowRegion><flowPara
         id="flowPara3932" /></flowRoot>    <flowRoot
       xml:space="preserve"
       id="flowRoot3934"
       style="fill:black;fill-opacity:1;stroke:none;font-family:sans-serif;font-style:normal;font-weight:normal;font-size:96px;line-height:1.25;letter-spacing:0px;word-spacing:0px"><flowRegion
         id="flowRegion3936"><rect
           id="rect3938"
           width="1208.5714"
           height="154.28572"
           x="28.571428"
           y="608.23395" /></flowRegion><flowPara
         id="flowPara3940" /></flowRoot>  </g>
</svg>
